<?xml version="1.0" encoding="UTF-8" standalone="no"?>
<!-- Created with Inkscape (http://www.inkscape.org/) -->

<svg
   xmlns:dc="http://purl.org/dc/elements/1.1/"
   xmlns:cc="http://creativecommons.org/ns#"
   xmlns:rdf="http://www.w3.org/1999/02/22-rdf-syntax-ns#"
   xmlns:svg="http://www.w3.org/2000/svg"
   xmlns="http://www.w3.org/2000/svg"
   xmlns:sodipodi="http://sodipodi.sourceforge.net/DTD/sodipodi-0.dtd"
   xmlns:inkscape="http://www.inkscape.org/namespaces/inkscape"
   width="311.62082mm"
   height="115.9813mm"
   viewBox="0 0 311.62082 115.9813"
   version="1.1"
   id="svg8"
   inkscape:version="0.92.3 (2405546, 2018-03-11)"
   sodipodi:docname="fig2_u4.52.02.svg">
  <defs
     id="defs2">
    <marker
       inkscape:stockid="Arrow2Send"
       orient="auto"
       refY="0"
       refX="0"
       id="Arrow2Send"
       style="overflow:visible"
       inkscape:isstock="true">
      <path
         id="path855"
         style="fill:#86a9c5;fill-opacity:1;fill-rule:evenodd;stroke:#86a9c5;stroke-width:0.625;stroke-linejoin:round;stroke-opacity:1"
         d="M 8.7185878,4.0337352 -2.2072895,0.01601326 8.7185884,-4.0017078 c -1.7454984,2.3720609 -1.7354408,5.6174519 -6e-7,8.035443 z"
         transform="matrix(-0.3,0,0,-0.3,0.69,0)"
         inkscape:connector-curvature="0" />
    </marker>
  </defs>
  <sodipodi:namedview
     id="base"
     pagecolor="#ffffff"
     bordercolor="#666666"
     borderopacity="1.0"
     inkscape:pageopacity="0.0"
     inkscape:pageshadow="2"
     inkscape:zoom="1.0066252"
     inkscape:cx="625.19431"
     inkscape:cy="165.28848"
     inkscape:document-units="mm"
     inkscape:current-layer="layer1"
     showgrid="true"
     fit-margin-top="0"
     fit-margin-left="0"
     fit-margin-right="0"
     fit-margin-bottom="0"
     inkscape:window-width="1920"
     inkscape:window-height="996"
     inkscape:window-x="0"
     inkscape:window-y="28"
     inkscape:window-maximized="1">
    <inkscape:grid
       type="xygrid"
       id="grid10"
       originx="93.633331"
       originy="-107.97917" />
  </sodipodi:namedview>
  <metadata
     id="metadata5">
    <rdf:RDF>
      <cc:Work
         rdf:about="">
        <dc:format>image/svg+xml</dc:format>
        <dc:type
           rdf:resource="http://purl.org/dc/dcmitype/StillImage" />
        <dc:title></dc:title>
      </cc:Work>
    </rdf:RDF>
  </metadata>
  <g
     inkscape:label="Layer 1"
     inkscape:groupmode="layer"
     id="layer1"
     transform="translate(93.633326,-73.039534)">
    <path
       style="fill:none;fill-rule:evenodd;stroke:#86a9c5;stroke-width:10;stroke-linecap:butt;stroke-linejoin:miter;stroke-miterlimit:4;stroke-dasharray:none;stroke-opacity:1;marker-end:url(#Arrow2Send)"
       d="m -63.5,95.916667 h 254"
       id="path12"
       inkscape:connector-curvature="0"
       sodipodi:nodetypes="cc" />
    <text
       xml:space="preserve"
       style="font-style:normal;font-variant:normal;font-weight:normal;font-stretch:normal;font-size:5.64444447px;line-height:125%;font-family:'Liberation Sans';-inkscape-font-specification:'Liberation Sans, Normal';text-align:start;letter-spacing:0px;word-spacing:0px;writing-mode:lr-tb;text-anchor:start;fill:#000000;fill-opacity:1;stroke:none;stroke-width:0.26458332px;stroke-linecap:butt;stroke-linejoin:miter;stroke-opacity:1"
       x="173.38208"
       y="77.395828"
       id="text1656"><tspan
         sodipodi:role="line"
         id="tspan1654"
         x="173.38208"
         y="77.395828"
         style="font-style:normal;font-variant:normal;font-weight:normal;font-stretch:normal;font-family:Courier;-inkscape-font-specification:Courier;stroke-width:0.26458332px">nb_proc</tspan></text>
    <path
       style="fill:none;fill-rule:evenodd;stroke:#000000;stroke-width:0.26458332px;stroke-linecap:butt;stroke-linejoin:miter;stroke-opacity:1"
       d="M 47.625,80.041664 V 119.72917"
       id="path1658"
       inkscape:connector-curvature="0" />
    <text
       xml:space="preserve"
       style="font-style:normal;font-variant:normal;font-weight:normal;font-stretch:normal;font-size:5.64444447px;line-height:125%;font-family:'Liberation Sans';-inkscape-font-specification:'Liberation Sans, Normal';text-align:start;letter-spacing:0px;word-spacing:0px;writing-mode:lr-tb;text-anchor:start;fill:#000000;fill-opacity:1;stroke:none;stroke-width:0.26458332px;stroke-linecap:butt;stroke-linejoin:miter;stroke-opacity:1"
       x="32.099911"
       y="76.58989"
       id="text1662"><tspan
         sodipodi:role="line"
         id="tspan1660"
         x="32.099911"
         y="76.58989"
         style="font-style:normal;font-variant:normal;font-weight:normal;font-stretch:normal;font-family:Courier;-inkscape-font-specification:Courier;stroke-width:0.26458332px">nb_sbande</tspan></text>
    <g
       id="g1680"
       transform="translate(12.700002,-4.2333335)">
      <text
         id="text1610"
         y="138.25"
         x="-100.54166"
         style="font-style:normal;font-variant:normal;font-weight:normal;font-stretch:normal;font-size:5.64444447px;line-height:125%;font-family:'Liberation Sans';-inkscape-font-specification:'Liberation Sans, Normal';text-align:start;letter-spacing:0px;word-spacing:0px;writing-mode:lr-tb;text-anchor:start;fill:#000000;fill-opacity:1;stroke:none;stroke-width:0.26458332px;stroke-linecap:butt;stroke-linejoin:miter;stroke-opacity:1"
         xml:space="preserve"><tspan
           style="font-style:normal;font-variant:normal;font-weight:normal;font-stretch:normal;font-family:Courier;-inkscape-font-specification:Courier;stroke-width:0.26458332px"
           y="138.25"
           x="-100.54166"
           id="tspan1608"
           sodipodi:role="line">nb_proc = nb_sbande</tspan><tspan
           id="tspan1612"
           style="stroke-width:0.26458332px"
           y="145.47968"
           x="-100.54166"
           sodipodi:role="line">Works whatever the linear solver.</tspan><tspan
           id="tspan1614"
           style="stroke-width:0.26458332px"
           y="152.53523"
           x="-100.54166"
           sodipodi:role="line">1 level of parallelism: </tspan><tspan
           id="tspan1616"
           style="stroke-width:0.26458332px"
           y="159.59079"
           x="-100.54166"
           sodipodi:role="line">at the level sub-intervals.</tspan></text>
      <rect
         y="130.3125"
         x="-105.83333"
         height="34.395832"
         width="92.604164"
         id="rect1664"
         style="color:#000000;clip-rule:nonzero;display:inline;overflow:visible;visibility:visible;opacity:1;isolation:auto;mix-blend-mode:normal;color-interpolation:sRGB;color-interpolation-filters:linearRGB;solid-color:#000000;solid-opacity:1;fill:none;fill-opacity:1;fill-rule:evenodd;stroke:#86a9c5;stroke-width:1;stroke-linecap:butt;stroke-linejoin:miter;stroke-miterlimit:4;stroke-dasharray:none;stroke-dashoffset:0;stroke-opacity:1;color-rendering:auto;image-rendering:auto;shape-rendering:auto;text-rendering:auto;enable-background:accumulate" />
    </g>
    <g
       id="g1688"
       transform="translate(1.5894572e-7,-6.8791617)">
      <text
         id="text1620"
         y="143.54167"
         x="10.583333"
         style="font-style:normal;font-variant:normal;font-weight:normal;font-stretch:normal;font-size:5.64444447px;line-height:125%;font-family:'Liberation Sans';-inkscape-font-specification:'Liberation Sans, Normal';text-align:start;letter-spacing:0px;word-spacing:0px;writing-mode:lr-tb;text-anchor:start;fill:#000000;fill-opacity:1;stroke:none;stroke-width:0.26458332px;stroke-linecap:butt;stroke-linejoin:miter;stroke-opacity:1"
         xml:space="preserve"><tspan
           style="font-style:normal;font-variant:normal;font-weight:normal;font-stretch:normal;font-family:Courier;-inkscape-font-specification:Courier;stroke-width:0.26458332px"
           y="143.54167"
           x="10.583333"
           id="tspan1618"
           sodipodi:role="line">nb_proc &lt; nb_sbande</tspan><tspan
           id="tspan1622"
           style="stroke-width:0.26458332px"
           y="150.77135"
           x="10.583333"
           sodipodi:role="line">Does not work.</tspan><tspan
           id="tspan1624"
           style="stroke-width:0.26458332px"
           y="157.8269"
           x="10.583333"
           sodipodi:role="line">Not enough processors to activate </tspan><tspan
           id="tspan1626"
           style="stroke-width:0.26458332px"
           y="164.88246"
           x="10.583333"
           sodipodi:role="line">the first parallelism level</tspan></text>
      <rect
         y="132.95833"
         x="5.2916665"
         height="37.041668"
         width="92.604164"
         id="rect1666"
         style="color:#000000;clip-rule:nonzero;display:inline;overflow:visible;visibility:visible;opacity:1;isolation:auto;mix-blend-mode:normal;color-interpolation:sRGB;color-interpolation-filters:linearRGB;solid-color:#000000;solid-opacity:1;fill:none;fill-opacity:1;fill-rule:evenodd;stroke:#86a9c5;stroke-width:1;stroke-linecap:butt;stroke-linejoin:miter;stroke-miterlimit:4;stroke-dasharray:none;stroke-dashoffset:0;stroke-opacity:1;color-rendering:auto;image-rendering:auto;shape-rendering:auto;text-rendering:auto;enable-background:accumulate" />
    </g>
    <g
       id="g1700"
       transform="translate(-12.699992,-13.229168)">
      <text
         id="text1630"
         y="146.1875"
         x="121.70833"
         style="font-style:normal;font-variant:normal;font-weight:normal;font-stretch:normal;font-size:5.64444447px;line-height:125%;font-family:'Liberation Sans';-inkscape-font-specification:'Liberation Sans, Normal';text-align:start;letter-spacing:0px;word-spacing:0px;writing-mode:lr-tb;text-anchor:start;fill:#000000;fill-opacity:1;stroke:none;stroke-width:0.26458332px;stroke-linecap:butt;stroke-linejoin:miter;stroke-opacity:1"
         xml:space="preserve"><tspan
           style="font-style:normal;font-variant:normal;font-weight:normal;font-stretch:normal;font-family:Courier;-inkscape-font-specification:Courier;stroke-width:0.26458332px"
           y="146.1875"
           x="121.70833"
           id="tspan1628"
           sodipodi:role="line">nb_proc &gt; nb_sbande</tspan><tspan
           id="tspan1632"
           style="stroke-width:0.26458332px"
           y="153.41718"
           x="121.70833"
           sodipodi:role="line">Works only with the linear solver MUMPS.</tspan><tspan
           id="tspan1634"
           style="stroke-width:0.26458332px"
           y="160.47273"
           x="121.70833"
           sodipodi:role="line">Two levels of parallelism: </tspan><tspan
           id="tspan1636"
           style="stroke-width:0.26458332px"
           y="167.52829"
           x="121.70833"
           sodipodi:role="line">at the level of sub-intervals </tspan><tspan
           id="tspan1638"
           style="stroke-width:0.26458332px"
           y="174.58383"
           x="121.70833"
           sodipodi:role="line">and in MUMPS.</tspan><tspan
           id="tspan1646"
           style="stroke-width:0.26458332px"
           y="181.63939"
           x="121.70833"
           sodipodi:role="line">To limit the load unbalance use</tspan><tspan
           id="tspan1648"
           style="font-style:normal;font-variant:normal;font-weight:normal;font-stretch:normal;font-family:Courier;-inkscape-font-specification:Courier;stroke-width:0.26458332px"
           y="188.69495"
           x="121.70833"
           sodipodi:role="line">nb_proc = C *  nb_sbande</tspan><tspan
           id="tspan1650"
           style="stroke-width:0.26458332px"
           y="195.92462"
           x="121.70833"
           sodipodi:role="line">(C is a multiple)</tspan></text>
      <rect
         y="138.25"
         x="116.41666"
         height="63.5"
         width="113.77083"
         id="rect1668"
         style="color:#000000;clip-rule:nonzero;display:inline;overflow:visible;visibility:visible;opacity:1;isolation:auto;mix-blend-mode:normal;color-interpolation:sRGB;color-interpolation-filters:linearRGB;solid-color:#000000;solid-opacity:1;fill:none;fill-opacity:1;fill-rule:evenodd;stroke:#86a9c5;stroke-width:1;stroke-linecap:butt;stroke-linejoin:miter;stroke-miterlimit:4;stroke-dasharray:none;stroke-dashoffset:0;stroke-opacity:1;color-rendering:auto;image-rendering:auto;shape-rendering:auto;text-rendering:auto;enable-background:accumulate" />
    </g>
    <path
       style="fill:none;fill-rule:evenodd;stroke:#000000;stroke-width:0.26458332px;stroke-linecap:butt;stroke-linejoin:miter;stroke-opacity:1"
       d="m -52.916667,122.375 34.395833,-21.16666"
       id="path1670"
       inkscape:connector-curvature="0" />
    <path
       style="fill:none;fill-rule:evenodd;stroke:#000000;stroke-width:0.22945128px;stroke-linecap:butt;stroke-linejoin:miter;stroke-opacity:1"
       d="m 129.64583,101.20834 34.39584,18.52083"
       id="path1672"
       inkscape:connector-curvature="0" />
  </g>
</svg>
